<svg id="Layer_1" data-name="Layer 1" xmlns="http://www.w3.org/2000/svg" viewBox="0 0 1549.72 429.27">
    <defs>
        <style>
            .cls-1 {
                fill: #231f20;
            }
            .subtitle-letter {
                opacity: 0;
            }
        </style>
    </defs>
    <title>logo</title>
    <g class="icon">
        <path class="cls-1" d="M243.78,145.64q-8.33,21.49,10,64.73,10.7,25.21,27.1,27.23t59.92-16.46q4.46-1.89,8.59-3.73-.18-7.23-1-14.6c-4.58-40.75-23.08-73.19-48.06-96.51Q273.71,118,261.82,125.8q-13.64,9-18,19.84">
            <animate attributeName="fill" values="#231f20;#f1e62d;#231f20" dur="0.4s" begin="7.4s" repeatCount="1" />
        </path>
        <path class="cls-1" d="M151.63,117q-5.85,13.53-.83,35,6,26.77,23,67,23.93,56.38,40.27,78.21t36.56,24q15.76,2,46.19-7.79,11.44-3.7,28-10a137.58,137.58,0,0,0,22.05-54q-37,15.38-55.67,19-47.28,9.05-68.14-40.07-24.36-57.36-10.21-91.85,7.49-18.07,24.93-30.21,11.51-8,36.65-19.75a161.83,161.83,0,0,0-51.21-20.39Q189.2,82.06,177.44,89.88q-20,13.62-25.8,27.14">
            <animate attributeName="fill" values="#231f20;#f1e62d;#231f20" dur="0.4s" begin="7.4s" repeatCount="1" />
        </path>
        <path class="cls-1" d="M402.16,131.7a209.78,209.78,0,0,0-45.72-69.64A201,201,0,0,0,289,15.84,205.51,205.51,0,0,0,209,0a201,201,0,0,0-79.44,15.84Q92.28,31.66,62.35,62.06A220.64,220.64,0,0,0,16,132.11,212.87,212.87,0,0,0,0,214a218.16,218.16,0,0,0,16,83.15,214.67,214.67,0,0,0,46.34,70.06q29.93,30.39,67.2,46.22A201.1,201.1,0,0,0,209,429.27a205.58,205.58,0,0,0,80-15.84,201.1,201.1,0,0,0,67.41-46.22,209.3,209.3,0,0,0,45.72-69.85A222.13,222.13,0,0,0,418,214a218.3,218.3,0,0,0-15.8-82.3M199.41,388.1C97,388.1,29.2,316.4,27.71,218.27c-1.48-97.51,94.2-183.8,196.64-183.8S397.65,108.29,397.65,205.8s-95.8,182.3-198.24,182.3">
            <animate attributeName="fill" values="#231f20;#f1e62d;#231f20" dur="0.4s" begin="7.4s" repeatCount="1" />
        </path>
        <path class="cls-1" d="M201.45,334.21q-24.71-24-55.37-96.28-27.44-64.61-29.71-96Q114,106,138.31,80.51C100.64,106.06,75.25,156.81,76,210.79,77,289,155.26,363.5,234.82,355.69c3.57-.35,7.05-.88,10.49-1.49q-25.85-2.53-43.86-20">
            <animate attributeName="fill" values="#231f20;#f1e62d;#231f20" dur="0.4s" begin="7.4s" repeatCount="1" />
        </path>
        <animateTransform attributeName="transform"
                          attributeType="XML"
                          type="scale"
                          from="0 0"
                          to="1 1"
                          dur="1s"
                          begin="0s"
                          repeatCount="0"/>
        <animate attributeName="opacity" values="1;0.2;1" dur="1s" begin="5.4s" repeatCount="1" />
    </g>
    <g class="title">
        <animate attributeName="opacity" values="1;0.2;1" dur="1s" begin="4.4s" repeatCount="1" />
        <!-- F -->
        <path class="cls-1 title-letter" d="M536.24,157V141.87H510.39V118.2q0-15.67,7.42-21.86t18.43-6.75V74.2a58.52,58.52,0,0,0-21.45,2.61,39.28,39.28,0,0,0-25.3,24.35,56,56,0,0,0-3.3,19.79v20.92H469.13V157h17.06V290.14h24.21V157">
            <animate attributeName="fill" values="#231f20;#f1e62d;#231f20" dur="0.4s" begin="0s" repeatCount="1" />
        </path>
        <!-- U -->
        <path class="cls-1 title-letter" d="M668,281.34V141.87H643.77V270.33a43,43,0,0,1-11.56,4.54,65.16,65.16,0,0,1-15.13,1.53q-15.41,0-22.55-8.7t-7.16-21.91V141.87h-24.2V244.75q0,22.29,12.38,35.35t40.15,13.07q18.17,0,31.08-3.58A94.39,94.39,0,0,0,668,281.34">
            <animate attributeName="fill" values="#231f20;#f1e62d;#231f20" dur="0.4s" begin="0.4s" repeatCount="1" />
        </path>
        <!-- L -->
        <rect class="cls-1 title-letter" x="708.7" y="74.2" width="24.2" height="215.94">
            <animate attributeName="fill" values="#231f20;#f1e62d;#231f20" dur="0.4s" begin="0.8s" repeatCount="1" />
        </rect>
        <!-- L -->
        <rect class="cls-1 title-letter" x="778.56" y="74.2" width="24.2" height="215.94">
            <animate attributeName="fill" values="#231f20;#f1e62d;#231f20" dur="0.4s" begin="1.2s" repeatCount="1" />
        </rect>
        <!-- S -->
        <path class="cls-1 title-letter" d="M922.67,249a50.77,50.77,0,0,0-1.51-12.35,32,32,0,0,0-5.64-11.52,49.17,49.17,0,0,0-11.15-10.46,81.86,81.86,0,0,0-17.74-9,61.91,61.91,0,0,1-17.74-10q-7-5.89-7-16.6a23.78,23.78,0,0,1,6.18-16.47q6.2-6.87,18.56-6.86a36.34,36.34,0,0,1,15.13,2.88,53.76,53.76,0,0,1,9.63,5.38l6.33-14.7a68.45,68.45,0,0,0-14.44-7.13,58.23,58.23,0,0,0-20.21-3.21,48.23,48.23,0,0,0-18.29,3.3,43.83,43.83,0,0,0-13.89,8.79,38.54,38.54,0,0,0-8.94,12.94,39.59,39.59,0,0,0-3.16,15.67A48.14,48.14,0,0,0,840.16,191a32.91,32.91,0,0,0,5.09,11,41.88,41.88,0,0,0,10.58,10.17,81.68,81.68,0,0,0,17.62,8.94q12.36,4.7,18.43,10.74t6,17.59a24.46,24.46,0,0,1-7.57,18.16Q882.78,275,870.42,275a51,51,0,0,1-17.48-2.76q-7.57-2.75-11.41-6l-6.61,16q6.06,4.69,16,7.44a82.13,82.13,0,0,0,22,2.75,56.16,56.16,0,0,0,20.49-3.58,48.35,48.35,0,0,0,15.68-9.59,43.77,43.77,0,0,0,10-13.87A38.92,38.92,0,0,0,922.67,249">
            <animate attributeName="fill" values="#231f20;#f1e62d;#231f20" dur="0.4s" begin="1.6s" repeatCount="1" />
        </path>
        <!-- C -->
        <path class="cls-1 title-letter" d="M1038.85,283l-6-15.13a40.76,40.76,0,0,1-9.49,5.09,36.69,36.69,0,0,1-13.07,2.07,28.24,28.24,0,0,1-15.81-4.41A36.77,36.77,0,0,1,983,258.37a61.47,61.47,0,0,1-7-19A118.28,118.28,0,0,1,973.67,215a127.66,127.66,0,0,1,2.06-23.79,59.16,59.16,0,0,1,6.59-18.72,34.72,34.72,0,0,1,11.55-12.24q7-4.39,17.2-4.4,8.25,0,13.48,2.35a44.24,44.24,0,0,1,8.52,4.81l5.77-14a48.93,48.93,0,0,0-11.27-6.46q-7.69-3.45-21.46-3.43a51.4,51.4,0,0,0-22.82,5.09,49.52,49.52,0,0,0-17.94,15,75.38,75.38,0,0,0-11.69,24.21,115,115,0,0,0-4.22,32.47A113.77,113.77,0,0,0,953.67,248a75.13,75.13,0,0,0,11.69,24.21,52.68,52.68,0,0,0,17.8,15.27,47.83,47.83,0,0,0,22.4,5.37q12.38,0,20.64-3t12.65-6.88">
            <animate attributeName="fill" values="#231f20;#f1e62d;#231f20" dur="0.4s" begin="2s" repeatCount="1" />
        </path>
        <!-- R -->
        <path class="cls-1 title-letter" d="M1132.1,139.39q-13.2-.28-22.83.28a133.29,133.29,0,0,0-16.92,1.92,81.4,81.4,0,0,0-12.93,3.44,105.26,105.26,0,0,0-11.14,4.81V290.14h24.2V160.57q6.05-3.85,15.4-4.68a48.56,48.56,0,0,1,18.43,1.93">
            <animate attributeName="fill" values="#231f20;#f1e62d;#231f20" dur="0.4s" begin="2.4s" repeatCount="1" />
        </path>
        <!-- E -->
        <path class="cls-1 title-letter" d="M1264.71,211.74q.55-37.12-14.59-54.87t-41.81-17.74a58.81,58.81,0,0,0-24.07,4.81,51.17,51.17,0,0,0-18.85,14.44A68.94,68.94,0,0,0,1153,182.3q-4.4,14.33-4.4,33.3,0,19.81,4.88,34.38T1167.24,274a55.89,55.89,0,0,0,21,14.17,73.48,73.48,0,0,0,26.68,4.68,104.37,104.37,0,0,0,26.55-3q11.41-3,18.28-7.16l-6.33-16a68.6,68.6,0,0,1-14.85,5.92,79.35,79.35,0,0,1-21.73,2.61q-20.08,0-31.5-12.37t-13.6-37.68m69.86-23.66-70.69,10.72q-.28-15.12,2.46-26a53.93,53.93,0,0,1,7.66-17.87,30.75,30.75,0,0,1,11.79-10.33,33.63,33.63,0,0,1,14.8-3.29q15.89,0,24.94,10.72t9,36">
            <animate attributeName="fill" values="#231f20;#f1e62d;#231f20" dur="0.4s" begin="2.8s" repeatCount="1" />
        </path>
        <!-- E -->
        <path class="cls-1 title-letter" d="M1408.58,211.74q.56-37.12-14.57-54.87t-41.81-17.74a58.89,58.89,0,0,0-24.08,4.81,51.23,51.23,0,0,0-18.83,14.44,69,69,0,0,0-12.39,23.93q-4.39,14.33-4.39,33.3,0,19.81,4.88,34.38T1311.12,274a56,56,0,0,0,21,14.17,73.43,73.43,0,0,0,26.68,4.68,104.4,104.4,0,0,0,26.55-3q11.4-3,18.28-7.16l-6.32-16a68.77,68.77,0,0,1-14.86,5.92,79.26,79.26,0,0,1-21.73,2.61q-20.07,0-31.5-12.37t-13.6-37.68m69.87-23.66-70.7,10.72c-.18-10.08.63-18.74,2.47-26a53.45,53.45,0,0,1,7.66-17.87,30.75,30.75,0,0,1,11.79-10.33,33.63,33.63,0,0,1,14.79-3.29q15.9,0,24.93,10.72t9.06,36">
            <animate attributeName="fill" values="#231f20;#f1e62d;#231f20" dur="0.4s" begin="3.2s" repeatCount="1" />
        </path>
        <!-- N -->
        <path class="cls-1 title-letter" d="M1549.72,290.14v-107a52.29,52.29,0,0,0-2.47-15.81,35.64,35.64,0,0,0-8.67-14.18q-6.19-6.32-16.51-10.17t-25.72-3.84a146.75,146.75,0,0,0-31.08,2.88,108.29,108.29,0,0,0-23.11,7.56V290.14h24.22V160a69,69,0,0,1,11.68-3.85,76.26,76.26,0,0,1,16.37-1.37q9.63,0,15.53,2.61a26.31,26.31,0,0,1,9.5,6.74,21.78,21.78,0,0,1,4.8,9.2,43.47,43.47,0,0,1,1.25,10.31V290.14">
            <animate attributeName="fill" values="#231f20;#f1e62d;#231f20" dur="0.8s" begin="3.6s" repeatCount="1" />
        </path>
    </g>
    <g class="subtitle">
        <animate attributeName="opacity" values="1;0.2;1" dur="1s" begin="6.4s" repeatCount="1" />
        <path class="cls-1 subtitle-letter" d="M506.55,351.83a33,33,0,0,1-7,.68q-6.92,0-10.31-2.67a9.05,9.05,0,0,1-3.39-7.53,9.62,9.62,0,0,1,1.5-5.51,11.39,11.39,0,0,1,4-3.61,22.11,22.11,0,0,1,6-2.15,63.65,63.65,0,0,1,7.22-1.12v-1.8a6.56,6.56,0,0,0-.5-2.71,4.18,4.18,0,0,0-1.37-1.71,5.33,5.33,0,0,0-2.09-.87,13.33,13.33,0,0,0-2.71-.25,16.42,16.42,0,0,0-4.64.65,26.26,26.26,0,0,0-3.77,1.4l-1.74-4.36a29.24,29.24,0,0,1,4.58-1.68,24.64,24.64,0,0,1,6.94-.87,18.84,18.84,0,0,1,4.85.6,10.22,10.22,0,0,1,3.92,2,9.34,9.34,0,0,1,2.64,3.58,13.64,13.64,0,0,1,1,5.45v20.8a20.26,20.26,0,0,1-5.1,1.74m-2-18.31a38.31,38.31,0,0,0-4.85.84,12.55,12.55,0,0,0-3.66,1.46,6.48,6.48,0,0,0-2.32,2.43,7.89,7.89,0,0,0-.81,3.79c0,2.2.61,3.79,1.84,4.76a8.27,8.27,0,0,0,5.23,1.46,12.34,12.34,0,0,0,2.51-.24,8.72,8.72,0,0,0,2.06-.68Z">
            <animate attributeName="opacity" values="0;1" dur="0.1s" begin="1s" repeatCount="1" fill="freeze" />
            <animate attributeName="fill" values="#231f20;#f1e62d;#231f20" dur="0.4s" begin="7.8s" repeatCount="1" />
        </path>
        <path class="cls-1 subtitle-letter" d="M540.95,351.86a31.32,31.32,0,0,1-6.82.65q-7.47,0-11.55-4.48t-4.08-12.51a23.64,23.64,0,0,1,1.06-7.35,15.87,15.87,0,0,1,3-5.51,13.06,13.06,0,0,1,4.67-3.46,14.68,14.68,0,0,1,5.94-1.18,17.93,17.93,0,0,1,5,.63V303h7.6v47.07a18.19,18.19,0,0,1-4.89,1.77m-2.71-29.11a11.83,11.83,0,0,0-3.36-.44,8,8,0,0,0-4.17,1A7.66,7.66,0,0,0,528,326a12.51,12.51,0,0,0-1.49,4,25.5,25.5,0,0,0-.47,5,26,26,0,0,0,.47,5.17,12.21,12.21,0,0,0,1.46,4,7,7,0,0,0,2.58,2.55,7.48,7.48,0,0,0,3.77.91,7.72,7.72,0,0,0,3.92-.75Z">
            <animate attributeName="opacity" values="0;1" dur="0.1s" begin="1.1s" repeatCount="1" fill="freeze" />
            <animate attributeName="fill" values="#231f20;#f1e62d;#231f20" dur="0.4s" begin="7.8s" repeatCount="1" />
        </path>
        <path class="cls-1 subtitle-letter" d="M569.37,351.89h-7.23l-11-33.56h8.09L565.2,340a30.67,30.67,0,0,1,.81,4.6h.12A38.19,38.19,0,0,1,567,340l6-21.67h7.1">
            <animate attributeName="opacity" values="0;1" dur="0.1s" begin="1.2s" repeatCount="1" fill="freeze" />
            <animate attributeName="fill" values="#231f20;#f1e62d;#231f20" dur="0.4s" begin="7.8s" repeatCount="1" />
        </path>
        <path class="cls-1 subtitle-letter" d="M603.3,351.83a33,33,0,0,1-7,.68q-6.92,0-10.31-2.67a9.06,9.06,0,0,1-3.39-7.53,9.62,9.62,0,0,1,1.5-5.51,11.39,11.39,0,0,1,4-3.61,22.11,22.11,0,0,1,6-2.15,63.63,63.63,0,0,1,7.23-1.12v-1.8a6.56,6.56,0,0,0-.5-2.71,4.19,4.19,0,0,0-1.37-1.71,5.33,5.33,0,0,0-2.09-.87,13.33,13.33,0,0,0-2.71-.25,16.42,16.42,0,0,0-4.64.65,26.22,26.22,0,0,0-3.77,1.4l-1.74-4.36a29.24,29.24,0,0,1,4.58-1.68,24.64,24.64,0,0,1,6.94-.87,18.84,18.84,0,0,1,4.85.6,10.22,10.22,0,0,1,3.92,2,9.34,9.34,0,0,1,2.64,3.58,13.61,13.61,0,0,1,1,5.45v20.8a20.21,20.21,0,0,1-5.1,1.74m-2-18.31a38.27,38.27,0,0,0-4.85.84,12.55,12.55,0,0,0-3.66,1.46,6.48,6.48,0,0,0-2.32,2.43,7.89,7.89,0,0,0-.81,3.79c0,2.2.61,3.79,1.84,4.76a8.27,8.27,0,0,0,5.23,1.46,12.34,12.34,0,0,0,2.51-.24,8.77,8.77,0,0,0,2.07-.68Z">
            <animate attributeName="opacity" values="0;1" dur="0.1s" begin="1.3s" repeatCount="1" fill="freeze" />
            <animate attributeName="fill" values="#231f20;#f1e62d;#231f20" dur="0.4s" begin="7.8s" repeatCount="1" />
        </path>
        <path class="cls-1 subtitle-letter" d="M635.37,351.89V328.11a7.48,7.48,0,0,0-.28-2.06,4.47,4.47,0,0,0-1-1.77,5.07,5.07,0,0,0-1.84-1.27,7.4,7.4,0,0,0-3-.5,14.9,14.9,0,0,0-3,.25,13.13,13.13,0,0,0-2.21.68v28.46h-7.59V320.14a24.2,24.2,0,0,1,5.6-1.77,38.45,38.45,0,0,1,7.54-.65,20.4,20.4,0,0,1,6.29.84,11.18,11.18,0,0,1,4.11,2.27,8.48,8.48,0,0,1,2.24,3.27A11.11,11.11,0,0,1,643,328v23.91">
            <animate attributeName="opacity" values="0;1" dur="0.1s" begin="1.4s" repeatCount="1" fill="freeze" />
            <animate attributeName="fill" values="#231f20;#f1e62d;#231f20" dur="0.4s" begin="7.8s" repeatCount="1" />
        </path>
        <path class="cls-1 subtitle-letter" d="M668.09,351.83a14.84,14.84,0,0,1-5,.68,12,12,0,0,1-5.3-1.18,12.24,12.24,0,0,1-4.22-3.43,16.56,16.56,0,0,1-2.8-5.48,25.06,25.06,0,0,1-1-7.41,24.3,24.3,0,0,1,1-7.41,15.91,15.91,0,0,1,2.86-5.42,12.48,12.48,0,0,1,4.26-3.33,12.07,12.07,0,0,1,5.24-1.15,13.76,13.76,0,0,1,5,.75A10,10,0,0,1,671,320l-1.62,4.29a6.8,6.8,0,0,0-1.77-1,7,7,0,0,0-2.71-.46,5.91,5.91,0,0,0-5.6,3.24,18.71,18.71,0,0,0-1.74,8.8,18.24,18.24,0,0,0,1.84,8.9,5.84,5.84,0,0,0,5.38,3.27,7.6,7.6,0,0,0,2.65-.41,6.34,6.34,0,0,0,1.9-1.09l1.74,4.67a9.07,9.07,0,0,1-3,1.62">
            <animate attributeName="opacity" values="0;1" dur="0.1s" begin="1.5s" repeatCount="1" fill="freeze" />
            <animate attributeName="fill" values="#231f20;#f1e62d;#231f20" dur="0.4s" begin="7.8s" repeatCount="1" />
        </path>
        <path class="cls-1 subtitle-letter" d="M681.75,337.88q.94,9.33,9.16,9.34a18.29,18.29,0,0,0,5-.6,20,20,0,0,0,3.46-1.27l1.81,4.8a19.21,19.21,0,0,1-4.52,1.68,27.25,27.25,0,0,1-6.57.68q-7.16,0-11.37-4.48t-4.2-13a24.61,24.61,0,0,1,1-7.32,15.67,15.67,0,0,1,2.86-5.45,12,12,0,0,1,4.52-3.39,14.69,14.69,0,0,1,5.95-1.15q6.73,0,10.21,4.33t3.23,12.86m-8.81-10.31a5.81,5.81,0,0,0-4.89-2.21,6.32,6.32,0,0,0-5.38,2.8q-2,2.8-1.9,8.84l13.88-2.12q0-5.1-1.71-7.32">
            <animate attributeName="opacity" values="0;1" dur="0.1s" begin="1.6s" repeatCount="1" fill="freeze" />
            <animate attributeName="fill" values="#231f20;#f1e62d;#231f20" dur="0.4s" begin="7.8s" repeatCount="1" />
        </path>
        <path class="cls-1 subtitle-letter" d="M730.41,351.86a31.31,31.31,0,0,1-6.82.65q-7.47,0-11.55-4.48T708,335.52a23.58,23.58,0,0,1,1.06-7.35,15.83,15.83,0,0,1,3-5.51,13.06,13.06,0,0,1,4.67-3.46,14.68,14.68,0,0,1,5.94-1.18,17.94,17.94,0,0,1,5,.63V303h7.6v47.07a18.18,18.18,0,0,1-4.89,1.77m-2.71-29.11a11.83,11.83,0,0,0-3.36-.44,8,8,0,0,0-4.18,1,7.69,7.69,0,0,0-2.71,2.71,12.56,12.56,0,0,0-1.49,4,25.34,25.34,0,0,0-.47,5,25.87,25.87,0,0,0,.47,5.17,12.21,12.21,0,0,0,1.46,4,7,7,0,0,0,2.58,2.55,7.49,7.49,0,0,0,3.77.91,7.73,7.73,0,0,0,3.92-.75Z">
            <animate attributeName="opacity" values="0;1" dur="0.1s" begin="1.7s" repeatCount="1" fill="freeze" />
            <animate attributeName="fill" values="#231f20;#f1e62d;#231f20" dur="0.4s" begin="7.8s" repeatCount="1" />
        </path>
        <path class="cls-1 subtitle-letter" d="M794.32,351.89h-6.85l-5.79-21a19.81,19.81,0,0,1-.68-4.29h-.13a21.9,21.9,0,0,1-.74,4.29l-5.92,21h-6.85L758,318.33h7.66l4.92,21.73a31.43,31.43,0,0,1,.62,4.42h.13a42,42,0,0,1,.87-4.42l5.91-21.73h6.35l5.67,21.73a37.42,37.42,0,0,1,.81,4.42h.12a39.59,39.59,0,0,1,.68-4.48l5.16-21.67h6.73">
            <animate attributeName="opacity" values="0;1" dur="0.1s" begin="1.8s" repeatCount="1" fill="freeze" />
            <animate attributeName="fill" values="#231f20;#f1e62d;#231f20" dur="0.4s" begin="7.8s" repeatCount="1" />
        </path>
        <path class="cls-1 subtitle-letter" d="M814.75,337.88q.94,9.33,9.15,9.34a18.29,18.29,0,0,0,5-.6,20,20,0,0,0,3.46-1.27l1.8,4.8a19.18,19.18,0,0,1-4.52,1.68,27.23,27.23,0,0,1-6.57.68q-7.16,0-11.36-4.48t-4.21-13a24.61,24.61,0,0,1,1-7.32,15.7,15.7,0,0,1,2.86-5.45,12,12,0,0,1,4.52-3.39,14.69,14.69,0,0,1,5.95-1.15q6.73,0,10.21,4.33t3.23,12.86m-8.81-10.31a5.82,5.82,0,0,0-4.89-2.21,6.31,6.31,0,0,0-5.38,2.8q-2,2.8-1.9,8.84l13.88-2.12q0-5.1-1.71-7.32">
            <animate attributeName="opacity" values="0;1" dur="0.1s" begin="1.9s" repeatCount="1" fill="freeze" />
            <animate attributeName="fill" values="#231f20;#f1e62d;#231f20" dur="0.4s" begin="7.8s" repeatCount="1" />
        </path>
        <path class="cls-1 subtitle-letter" d="M868.48,341.93a15.56,15.56,0,0,1-3.14,5.73,13.66,13.66,0,0,1-5.1,3.61,18.2,18.2,0,0,1-6.94,1.24,28.4,28.4,0,0,1-6.7-.68,14.31,14.31,0,0,1-4.39-1.74V303h7.54v16.27a18.1,18.1,0,0,1,2.74-1,15,15,0,0,1,3.86-.41,12.27,12.27,0,0,1,5.35,1.15,12,12,0,0,1,4.17,3.3,15.71,15.71,0,0,1,2.71,5.2,22.49,22.49,0,0,1,1,6.79,25.24,25.24,0,0,1-1.06,7.59m-6.88-12a13.05,13.05,0,0,0-1.31-3.94,7.08,7.08,0,0,0-2.37-2.64,6.49,6.49,0,0,0-3.64-1,11.09,11.09,0,0,0-2.58.25,8.17,8.17,0,0,0-2,.75v23.79a9.69,9.69,0,0,0,3.86.68,6.79,6.79,0,0,0,6.44-3.55q2-3.54,2-9.5a28.15,28.15,0,0,0-.4-4.88">
            <animate attributeName="opacity" values="0;1" dur="0.1s" begin="2s" repeatCount="1" fill="freeze" />
            <animate attributeName="fill" values="#231f20;#f1e62d;#231f20" dur="0.4s" begin="7.8s" repeatCount="1" />
        </path>
        <path class="cls-1 subtitle-letter" d="M912.44,351.83a33,33,0,0,1-7,.68q-6.92,0-10.31-2.67a9.06,9.06,0,0,1-3.39-7.53,9.62,9.62,0,0,1,1.5-5.51,11.39,11.39,0,0,1,4-3.61,22,22,0,0,1,6-2.15,63.7,63.7,0,0,1,7.23-1.12v-1.8a6.56,6.56,0,0,0-.5-2.71,4.17,4.17,0,0,0-1.37-1.71,5.32,5.32,0,0,0-2.09-.87,13.33,13.33,0,0,0-2.71-.25,16.42,16.42,0,0,0-4.64.65,26.22,26.22,0,0,0-3.77,1.4l-1.74-4.36a29.2,29.2,0,0,1,4.58-1.68,24.64,24.64,0,0,1,6.94-.87,18.84,18.84,0,0,1,4.85.6,10.2,10.2,0,0,1,3.92,2,9.34,9.34,0,0,1,2.64,3.58,13.61,13.61,0,0,1,1,5.45v20.8a20.3,20.3,0,0,1-5.11,1.74m-2-18.31a38.28,38.28,0,0,0-4.85.84,12.6,12.6,0,0,0-3.66,1.46,6.5,6.5,0,0,0-2.32,2.43,7.89,7.89,0,0,0-.81,3.79c0,2.2.61,3.79,1.85,4.76a8.26,8.26,0,0,0,5.23,1.46,12.32,12.32,0,0,0,2.5-.24,8.74,8.74,0,0,0,2.06-.68Z">
            <animate attributeName="opacity" values="0;1" dur="0.1s" begin="2.1s" repeatCount="1" fill="freeze" />
            <animate attributeName="fill" values="#231f20;#f1e62d;#231f20" dur="0.4s" begin="7.8s" repeatCount="1" />
        </path>
        <path class="cls-1 subtitle-letter" d="M944.5,351.89V328.11a7.54,7.54,0,0,0-.28-2.06,4.47,4.47,0,0,0-1-1.77,5.07,5.07,0,0,0-1.84-1.27,7.4,7.4,0,0,0-3-.5,14.9,14.9,0,0,0-3,.25,13.25,13.25,0,0,0-2.21.68v28.46h-7.59V320.14a24.19,24.19,0,0,1,5.6-1.77,38.42,38.42,0,0,1,7.53-.65,20.4,20.4,0,0,1,6.29.84,11.16,11.16,0,0,1,4.11,2.27,8.48,8.48,0,0,1,2.24,3.27,11.11,11.11,0,0,1,.68,3.89v23.91">
            <animate attributeName="opacity" values="0;1" dur="0.1s" begin="2.2s" repeatCount="1" fill="freeze" />
            <animate attributeName="fill" values="#231f20;#f1e62d;#231f20" dur="0.4s" begin="7.8s" repeatCount="1" />
        </path>
        <path class="cls-1 subtitle-letter" d="M981.39,351.86a31.28,31.28,0,0,1-6.82.65q-7.47,0-11.55-4.48t-4.08-12.51a23.63,23.63,0,0,1,1.06-7.35,15.87,15.87,0,0,1,3-5.51,13.06,13.06,0,0,1,4.67-3.46,14.69,14.69,0,0,1,5.94-1.18,17.93,17.93,0,0,1,5,.63V303h7.6v47.07a18.18,18.18,0,0,1-4.89,1.77m-2.71-29.11a11.83,11.83,0,0,0-3.36-.44,8,8,0,0,0-4.17,1,7.66,7.66,0,0,0-2.71,2.71,12.52,12.52,0,0,0-1.49,4,25.35,25.35,0,0,0-.47,5,25.87,25.87,0,0,0,.47,5.17,12.22,12.22,0,0,0,1.46,4,7,7,0,0,0,2.58,2.55,7.48,7.48,0,0,0,3.77.91,7.72,7.72,0,0,0,3.92-.75Z">
            <animate attributeName="opacity" values="0;1" dur="0.1s" begin="2.3s" repeatCount="1" fill="freeze" />
            <animate attributeName="fill" values="#231f20;#f1e62d;#231f20" dur="0.4s" begin="7.8s" repeatCount="1" />
        </path>
        <path class="cls-1 subtitle-letter" d="M1018.35,311.45a4.62,4.62,0,0,1-6,0,3.43,3.43,0,0,1-1.21-2.65,3.5,3.5,0,0,1,1.21-2.7,4.61,4.61,0,0,1,6,0,3.56,3.56,0,0,1,1.18,2.7,3.49,3.49,0,0,1-1.18,2.65m-6.79,6.88h7.6v33.56h-7.6Z">
            <animate attributeName="opacity" values="0;1" dur="0.1s" begin="2.4s" repeatCount="1" fill="freeze" />
            <animate attributeName="fill" values="#231f20;#f1e62d;#231f20" dur="0.4s" begin="7.8s" repeatCount="1" />
        </path>
        <path class="cls-1 subtitle-letter" d="M1046.36,351.89V328.11a7.41,7.41,0,0,0-.28-2.06,4.4,4.4,0,0,0-1-1.77,5.06,5.06,0,0,0-1.84-1.27,7.42,7.42,0,0,0-3-.5,14.91,14.91,0,0,0-3,.25,13.16,13.16,0,0,0-2.21.68v28.46h-7.59V320.14a24.15,24.15,0,0,1,5.6-1.77,38.4,38.4,0,0,1,7.53-.65,20.41,20.41,0,0,1,6.29.84,11.16,11.16,0,0,1,4.11,2.27,8.42,8.42,0,0,1,2.24,3.27A11,11,0,0,1,1054,328v23.91">
            <animate attributeName="opacity" values="0;1" dur="0.1s" begin="2.5s" repeatCount="1" fill="freeze" />
            <animate attributeName="fill" values="#231f20;#f1e62d;#231f20" dur="0.4s" begin="7.8s" repeatCount="1" />
        </path>
        <path class="cls-1 subtitle-letter" d="M1075.56,352a11.24,11.24,0,0,1-2.37.22,10.37,10.37,0,0,1-4.23-.78,8.49,8.49,0,0,1-2.87-2,7.52,7.52,0,0,1-1.62-2.9,11.67,11.67,0,0,1-.5-3.4v-20h-3.74v-4.86H1064v-7.41l7.59-2.11v9.53h5.49v4.86h-5.49V342.8a5.41,5.41,0,0,0,.85,3.18,3.24,3.24,0,0,0,2.83,1.19,4.3,4.3,0,0,0,.91-.09l.91-.22v4.74a7,7,0,0,1-1.5.46">
            <animate attributeName="opacity" values="0;1" dur="0.1s" begin="2.6s" repeatCount="1" fill="freeze" />
            <animate attributeName="fill" values="#231f20;#f1e62d;#231f20" dur="0.4s" begin="7.8s" repeatCount="1" />
        </path>
        <path class="cls-1 subtitle-letter" d="M1088.83,337.88q.93,9.33,9.16,9.34a18.25,18.25,0,0,0,5-.6,19.9,19.9,0,0,0,3.46-1.27l1.8,4.8a19.08,19.08,0,0,1-4.51,1.68,27.23,27.23,0,0,1-6.57.68q-7.16,0-11.37-4.48t-4.21-13a24.47,24.47,0,0,1,1-7.32,15.51,15.51,0,0,1,2.86-5.45,12,12,0,0,1,4.52-3.39,14.63,14.63,0,0,1,5.94-1.15q6.73,0,10.22,4.33t3.23,12.86m-8.81-10.31a5.82,5.82,0,0,0-4.89-2.21,6.33,6.33,0,0,0-5.39,2.8q-2,2.8-1.9,8.84l13.89-2.12q0-5.1-1.71-7.32">
            <animate attributeName="opacity" values="0;1" dur="0.1s" begin="2.7s" repeatCount="1" fill="freeze" />
            <animate attributeName="fill" values="#231f20;#f1e62d;#231f20" dur="0.4s" begin="7.8s" repeatCount="1" />
        </path>
        <path class="cls-1 subtitle-letter" d="M1131,323.31a9.93,9.93,0,0,0-3.86-.59,7.14,7.14,0,0,0-3.24.84v28.33h-7.59V320.14a24,24,0,0,1,2.8-1.12,21.55,21.55,0,0,1,3.42-.81,41.3,41.3,0,0,1,4.36-.44q2.43-.11,5.61,0">
            <animate attributeName="opacity" values="0;1" dur="0.1s" begin="2.8s" repeatCount="1" fill="freeze" />
            <animate attributeName="fill" values="#231f20;#f1e62d;#231f20" dur="0.4s" begin="7.8s" repeatCount="1" />
        </path>
        <path class="cls-1 subtitle-letter" d="M1155.63,351.83a33,33,0,0,1-7,.68q-6.91,0-10.31-2.67a9,9,0,0,1-3.39-7.53,9.65,9.65,0,0,1,1.49-5.51,11.42,11.42,0,0,1,4-3.61,22.11,22.11,0,0,1,6-2.15,63.6,63.6,0,0,1,7.22-1.12v-1.8a6.56,6.56,0,0,0-.5-2.71,4.19,4.19,0,0,0-1.38-1.71,5.28,5.28,0,0,0-2.08-.87,13.35,13.35,0,0,0-2.71-.25,16.39,16.39,0,0,0-4.64.65,26,26,0,0,0-3.77,1.4l-1.74-4.36a28.91,28.91,0,0,1,4.57-1.68,24.65,24.65,0,0,1,6.94-.87,18.85,18.85,0,0,1,4.86.6,10.17,10.17,0,0,1,3.92,2,9.35,9.35,0,0,1,2.65,3.58,13.61,13.61,0,0,1,1,5.45v20.8a20.26,20.26,0,0,1-5.11,1.74m-2-18.31a38.15,38.15,0,0,0-4.85.84,12.52,12.52,0,0,0-3.66,1.46,6.55,6.55,0,0,0-2.32,2.43,8,8,0,0,0-.81,3.79c0,2.2.62,3.79,1.85,4.76a8.26,8.26,0,0,0,5.23,1.46,12.3,12.3,0,0,0,2.5-.24,8.74,8.74,0,0,0,2.07-.68Z">
            <animate attributeName="opacity" values="0;1" dur="0.1s" begin="2.9s" repeatCount="1" fill="freeze" />
            <animate attributeName="fill" values="#231f20;#f1e62d;#231f20" dur="0.4s" begin="7.8s" repeatCount="1" />
        </path>
        <path class="cls-1 subtitle-letter" d="M1185.86,351.83a14.83,14.83,0,0,1-4.95.68,12,12,0,0,1-5.3-1.18,12.26,12.26,0,0,1-4.22-3.43,16.43,16.43,0,0,1-2.8-5.48,25.19,25.19,0,0,1-1-7.41,24.25,24.25,0,0,1,1-7.41,16,16,0,0,1,2.85-5.42,12.52,12.52,0,0,1,4.26-3.33,12.07,12.07,0,0,1,5.24-1.15,13.79,13.79,0,0,1,5,.75,10,10,0,0,1,2.8,1.56l-1.62,4.29a6.68,6.68,0,0,0-1.77-1,7,7,0,0,0-2.71-.46,5.91,5.91,0,0,0-5.6,3.24,18.71,18.71,0,0,0-1.74,8.8,18.22,18.22,0,0,0,1.84,8.9,5.84,5.84,0,0,0,5.38,3.27,7.59,7.59,0,0,0,2.65-.41,6.34,6.34,0,0,0,1.9-1.09l1.74,4.67a9.07,9.07,0,0,1-3,1.62">
            <animate attributeName="opacity" values="0;1" dur="0.1s" begin="3s" repeatCount="1" fill="freeze" />
            <animate attributeName="fill" values="#231f20;#f1e62d;#231f20" dur="0.4s" begin="7.8s" repeatCount="1" />
        </path>
        <path class="cls-1 subtitle-letter" d="M1208.25,352a11.28,11.28,0,0,1-2.37.22,10.37,10.37,0,0,1-4.23-.78,8.43,8.43,0,0,1-2.86-2,7.47,7.47,0,0,1-1.62-2.9,11.67,11.67,0,0,1-.5-3.4v-20h-3.74v-4.86h3.74v-7.41l7.59-2.11v9.53h5.49v4.86h-5.49V342.8a5.41,5.41,0,0,0,.85,3.18,3.24,3.24,0,0,0,2.83,1.19,4.3,4.3,0,0,0,.9-.09l.91-.22v4.74a6.84,6.84,0,0,1-1.5.46">
            <animate attributeName="opacity" values="0;1" dur="0.1s" begin="3.1s" repeatCount="1" fill="freeze" />
            <animate attributeName="fill" values="#231f20;#f1e62d;#231f20" dur="0.4s" begin="7.8s" repeatCount="1" />
        </path>
        <path class="cls-1 subtitle-letter" d="M1223.13,311.45a4.62,4.62,0,0,1-6,0,3.43,3.43,0,0,1-1.21-2.65,3.5,3.5,0,0,1,1.21-2.7,4.61,4.61,0,0,1,6,0,3.55,3.55,0,0,1,1.18,2.7,3.47,3.47,0,0,1-1.18,2.65m-6.79,6.88h7.6v33.56h-7.6Z">
            <animate attributeName="opacity" values="0;1" dur="0.1s" begin="3.2s" repeatCount="1" fill="freeze" />
            <animate attributeName="fill" values="#231f20;#f1e62d;#231f20" dur="0.4s" begin="7.8s" repeatCount="1" />
        </path>
        <path class="cls-1 subtitle-letter" d="M1247.72,351.89h-7.22l-11-33.56h8.1l5.92,21.67a30.48,30.48,0,0,1,.81,4.6h.13a38,38,0,0,1,.87-4.6l6-21.67h7.09">
            <animate attributeName="opacity" values="0;1" dur="0.1s" begin="3.3s" repeatCount="1" fill="freeze" />
            <animate attributeName="fill" values="#231f20;#f1e62d;#231f20" dur="0.4s" begin="7.8s" repeatCount="1" />
        </path>
        <path class="cls-1 subtitle-letter" d="M1269.14,337.88q.95,9.33,9.16,9.34a18.31,18.31,0,0,0,5-.6,20.21,20.21,0,0,0,3.45-1.27l1.8,4.8a19.28,19.28,0,0,1-4.51,1.68,27.29,27.29,0,0,1-6.57.68q-7.16,0-11.37-4.48t-4.21-13a24.6,24.6,0,0,1,1-7.32,15.63,15.63,0,0,1,2.86-5.45,12.06,12.06,0,0,1,4.52-3.39,14.7,14.7,0,0,1,5.95-1.15q6.73,0,10.21,4.33t3.23,12.86m-8.81-10.31a5.82,5.82,0,0,0-4.89-2.21,6.32,6.32,0,0,0-5.38,2.8q-2,2.8-1.9,8.84l13.88-2.12q0-5.1-1.71-7.32">
            <animate attributeName="opacity" values="0;1" dur="0.1s" begin="3.4" repeatCount="1" fill="freeze" />
            <animate attributeName="fill" values="#231f20;#f1e62d;#231f20" dur="0.4s" begin="7.8s" repeatCount="1" />
        </path>
        <path class="cls-1 subtitle-letter" d="M1331.87,346.13a9.76,9.76,0,0,1-2.4,3.24,11.82,11.82,0,0,1-3.76,2.24,13.88,13.88,0,0,1-4.94.84,19.54,19.54,0,0,1-5.39-.68,12.89,12.89,0,0,1-3.89-1.75l2-4.86a9.07,9.07,0,0,0,2.58,1.34,11,11,0,0,0,3.71.59,5.34,5.34,0,0,0,3.81-1.34,4.47,4.47,0,0,0,1.41-3.39,4.58,4.58,0,0,0-1.16-3.36,10.62,10.62,0,0,0-3.81-2.18,17.41,17.41,0,0,1-3.86-2,9.8,9.8,0,0,1-2.33-2.3,7.51,7.51,0,0,1-1.16-2.5,10.88,10.88,0,0,1-.31-2.58,9.63,9.63,0,0,1,.74-3.77,8.86,8.86,0,0,1,2.15-3.08,10.49,10.49,0,0,1,3.37-2.09,11.83,11.83,0,0,1,4.39-.78,17.2,17.2,0,0,1,5,.65,14.78,14.78,0,0,1,3.77,1.71l-1.86,4.42a9,9,0,0,0-2.14-1.25,7.67,7.67,0,0,0-3.18-.62,4.77,4.77,0,0,0-3.63,1.31,4.4,4.4,0,0,0-1.22,3.11,4,4,0,0,0,1.41,3.24,13.23,13.23,0,0,0,3.63,2.06,20.53,20.53,0,0,1,4,2.11,9.89,9.89,0,0,1,2.44,2.37,8,8,0,0,1,1.2,2.59,11.46,11.46,0,0,1,.34,2.83,9.21,9.21,0,0,1-.84,3.89">
            <animate attributeName="opacity" values="0;1" dur="0.1s" begin="3.5s" repeatCount="1" fill="freeze" />
            <animate attributeName="fill" values="#231f20;#f1e62d;#231f20" dur="0.4s" begin="7.8s" repeatCount="1" />
        </path>
        <path class="cls-1 subtitle-letter" d="M1365.15,342.06a16.78,16.78,0,0,1-2.58,5.51,12,12,0,0,1-4.33,3.64,15.18,15.18,0,0,1-12.33,0,11.84,11.84,0,0,1-4.33-3.64,16.64,16.64,0,0,1-2.59-5.51,26.07,26.07,0,0,1-.87-6.91,26.42,26.42,0,0,1,.87-6.94,16.61,16.61,0,0,1,2.59-5.54,11.84,11.84,0,0,1,4.33-3.64,15.22,15.22,0,0,1,12.33,0,12.26,12.26,0,0,1,4.36,3.64,16,16,0,0,1,2.58,5.54,27.26,27.26,0,0,1,.85,6.94,25.89,25.89,0,0,1-.88,6.91m-6.91-11.63a16.31,16.31,0,0,0-.93-4,7,7,0,0,0-1.93-2.85,5,5,0,0,0-3.3-1.06,4.85,4.85,0,0,0-3.24,1.06,7.15,7.15,0,0,0-2,2.85,15.32,15.32,0,0,0-1,4,42,42,0,0,0-.24,4.68,36.45,36.45,0,0,0,.28,4.59,16.55,16.55,0,0,0,1,3.94,6.6,6.6,0,0,0,2,2.75,5,5,0,0,0,3.21,1,5,5,0,0,0,3.3-1,6.72,6.72,0,0,0,1.93-2.75,15.4,15.4,0,0,0,.93-3.94,40.54,40.54,0,0,0,.25-4.59,42,42,0,0,0-.25-4.68">
            <animate attributeName="opacity" values="0;1" dur="0.1s" begin="3.6s" repeatCount="1" fill="freeze" />
            <animate attributeName="fill" values="#231f20;#f1e62d;#231f20" dur="0.4s" begin="7.8s" repeatCount="1" />
        </path>
        <rect class="cls-1 subtitle-letter" x="1373.18" y="303.02" width="7.6" height="48.88">
            <animate attributeName="opacity" values="0;1" dur="0.1s" begin="3.7s" repeatCount="1" fill="freeze" />
            <animate attributeName="fill" values="#231f20;#f1e62d;#231f20" dur="0.4s" begin="7.8s" repeatCount="1" />
        </rect>
        <path class="cls-1 subtitle-letter" d="M1409.79,351.8a32.45,32.45,0,0,1-7.59.78q-6.79,0-9.9-2.86t-3.11-8.47V318.34h7.59v23.35a6.17,6.17,0,0,0,1.34,4,5.28,5.28,0,0,0,4.33,1.65,10,10,0,0,0,5-1.12V318.34h7.59V349.9a22.93,22.93,0,0,1-5.29,1.9">
            <animate attributeName="opacity" values="0;1" dur="0.1s" begin="3.8s" repeatCount="1" fill="freeze" />
            <animate attributeName="fill" values="#231f20;#f1e62d;#231f20" dur="0.4s" begin="7.8s" repeatCount="1" />
        </path>
        <path class="cls-1 subtitle-letter" d="M1436.69,352a11.25,11.25,0,0,1-2.37.22,10.42,10.42,0,0,1-4.24-.78,8.45,8.45,0,0,1-2.86-2,7.58,7.58,0,0,1-1.62-2.9,11.68,11.68,0,0,1-.5-3.4v-20h-3.73v-4.86h3.73v-7.41l7.59-2.11v9.53h5.48v4.86h-5.48V342.8a5.41,5.41,0,0,0,.84,3.18,3.25,3.25,0,0,0,2.83,1.19,4.31,4.31,0,0,0,.91-.09l.91-.22v4.74a6.77,6.77,0,0,1-1.5.46">
            <animate attributeName="opacity" values="0;1" dur="0.1s" begin="3.9s" repeatCount="1" fill="freeze" />
            <animate attributeName="fill" values="#231f20;#f1e62d;#231f20" dur="0.4s" begin="7.8s" repeatCount="1" />
        </path>
        <path class="cls-1 subtitle-letter" d="M1451.57,311.45a4.62,4.62,0,0,1-6,0,3.43,3.43,0,0,1-1.21-2.65,3.5,3.5,0,0,1,1.21-2.7,4.6,4.6,0,0,1,6,0,3.54,3.54,0,0,1,1.18,2.7,3.46,3.46,0,0,1-1.18,2.65m-6.79,6.88h7.6v33.56h-7.6Z">
            <animate attributeName="opacity" values="0;1" dur="0.1s" begin="4s" repeatCount="1" fill="freeze" />
            <animate attributeName="fill" values="#231f20;#f1e62d;#231f20" dur="0.4s" begin="7.8s" repeatCount="1" />
        </path>
        <path class="cls-1 subtitle-letter" d="M1486.49,342.06a16.7,16.7,0,0,1-2.58,5.51,11.89,11.89,0,0,1-4.33,3.64,15.17,15.17,0,0,1-12.33,0,11.87,11.87,0,0,1-4.33-3.64,16.7,16.7,0,0,1-2.58-5.51,25.91,25.91,0,0,1-.88-6.91,26.25,26.25,0,0,1,.88-6.94,16.67,16.67,0,0,1,2.58-5.54,11.87,11.87,0,0,1,4.33-3.64,15.21,15.21,0,0,1,12.33,0,12.15,12.15,0,0,1,4.36,3.64,16,16,0,0,1,2.58,5.54,27.27,27.27,0,0,1,.85,6.94,26,26,0,0,1-.88,6.91m-6.91-11.63a16.14,16.14,0,0,0-.93-4,6.94,6.94,0,0,0-1.93-2.85,5,5,0,0,0-3.3-1.06,4.86,4.86,0,0,0-3.24,1.06,7.15,7.15,0,0,0-2,2.85,15.18,15.18,0,0,0-1,4,42,42,0,0,0-.25,4.68,36.43,36.43,0,0,0,.28,4.59,15.86,15.86,0,0,0,1,3.94,6.63,6.63,0,0,0,2,2.75,5,5,0,0,0,3.21,1,5,5,0,0,0,3.3-1,6.71,6.71,0,0,0,1.93-2.75,15.24,15.24,0,0,0,.93-3.94,39.74,39.74,0,0,0,.25-4.59,41.13,41.13,0,0,0-.25-4.68">
            <animate attributeName="opacity" values="0;1" dur="0.1s" begin="4.1s" repeatCount="1" fill="freeze" />
            <animate attributeName="fill" values="#231f20;#f1e62d;#231f20" dur="0.4s" begin="7.8s" repeatCount="1" />
        </path>
        <path class="cls-1 subtitle-letter" d="M1513.08,351.89V328.11a7.54,7.54,0,0,0-.28-2.06,4.5,4.5,0,0,0-1-1.77A5,5,0,0,0,1510,323a7.42,7.42,0,0,0-3-.5,14.9,14.9,0,0,0-3,.25,13.25,13.25,0,0,0-2.21.68v28.46h-7.59V320.14a24.26,24.26,0,0,1,5.6-1.77,38.44,38.44,0,0,1,7.54-.65,20.34,20.34,0,0,1,6.28.84,11.09,11.09,0,0,1,4.11,2.27,8.42,8.42,0,0,1,2.24,3.27,11,11,0,0,1,.68,3.89v23.91">
            <animate attributeName="opacity" values="0;1" dur="0.1s" begin="4.2s" repeatCount="1" fill="freeze" />
            <animate attributeName="fill" values="#231f20;#f1e62d;#231f20" dur="0.4s" begin="7.8s" repeatCount="1" />
        </path>
        <path class="cls-1 subtitle-letter" d="M1547.11,346.13a9.8,9.8,0,0,1-2.4,3.24,11.86,11.86,0,0,1-3.76,2.24,13.91,13.91,0,0,1-5,.84,19.53,19.53,0,0,1-5.39-.68,12.89,12.89,0,0,1-3.89-1.75l2-4.86a9,9,0,0,0,2.58,1.34,11,11,0,0,0,3.71.59,5.35,5.35,0,0,0,3.82-1.34,4.48,4.48,0,0,0,1.41-3.39,4.59,4.59,0,0,0-1.16-3.36,10.63,10.63,0,0,0-3.81-2.18,17.32,17.32,0,0,1-3.86-2,9.81,9.81,0,0,1-2.33-2.3,7.42,7.42,0,0,1-1.15-2.5,10.69,10.69,0,0,1-.31-2.58,9.63,9.63,0,0,1,.74-3.77,8.82,8.82,0,0,1,2.16-3.08,10.43,10.43,0,0,1,3.36-2.09,11.83,11.83,0,0,1,4.39-.78,17.16,17.16,0,0,1,5,.65,14.86,14.86,0,0,1,3.77,1.71l-1.87,4.42a9,9,0,0,0-2.14-1.25,7.67,7.67,0,0,0-3.18-.62,4.77,4.77,0,0,0-3.63,1.31,4.4,4.4,0,0,0-1.22,3.11,4,4,0,0,0,1.41,3.24,13.32,13.32,0,0,0,3.63,2.06,20.23,20.23,0,0,1,4,2.11,9.77,9.77,0,0,1,2.44,2.37,7.93,7.93,0,0,1,1.2,2.59,11.46,11.46,0,0,1,.34,2.83,9.21,9.21,0,0,1-.85,3.89">
            <animate attributeName="opacity" values="0;1" dur="0.1s" begin="4.3s" repeatCount="1" fill="freeze" />
            <animate attributeName="fill" values="#231f20;#f1e62d;#231f20" dur="0.4s" begin="7.8s" repeatCount="1" />
        </path>
    </g>
</svg>